%YAML 1.1
%TAG !u! tag:unity3d.com,2011:
--- !u!21 &2100000
Material:
  serializedVersion: 3
  m_ObjectHideFlags: 0
  m_PrefabParentObject: {fileID: 0}
  m_PrefabInternal: {fileID: 0}
  m_Name: FoliageBroadleaf01b
  m_Shader: {fileID: 10601, guid: 0000000000000000f000000000000000, type: 0}
  m_ShaderKeywords: []
  m_CustomRenderQueue: -1
  m_SavedProperties:
    serializedVersion: 2
    m_TexEnvs:
      data:
        first:
          name: _MainTex
        second:
          m_Texture: {fileID: 2800000, guid: d15b086b50c24c64389240d07d6719fc, type: 3}
          m_Scale: {x: 1, y: 1}
          m_Offset: {x: 0, y: 0}
      data:
        first:
          name: _BumpMap
        second:
          m_Texture: {fileID: 2800000, guid: 79c31b1bbeea26a47b0861d519fe5637, type: 3}
          m_Scale: {x: 1, y: 1}
          m_Offset: {x: 0, y: 0}
      data:
        first:
          name: _GlossMap
        second:
          m_Texture: {fileID: 2800000, guid: 47d07783e62c4c5479e814e6dd157f89, type: 3}
          m_Scale: {x: 1, y: 1}
          m_Offset: {x: 0, y: 0}
      data:
        first:
          name: _TranslucencyMap
        second:
          m_Texture: {fileID: 2800000, guid: 88e9e28d4c4b63345bbef0e32d97ec82, type: 3}
          m_Scale: {x: 1, y: 1}
          m_Offset: {x: 0, y: 0}
      data:
        first:
          name: _ShadowOffset
        second:
          m_Texture: {fileID: 0}
          m_Scale: {x: 1, y: 1}
          m_Offset: {x: 0, y: 0}
    m_Floats:
      data:
        first:
          name: _Cutoff
        second: .196428567
      data:
        first:
          name: _Shininess
        second: .298163205
      data:
        first:
          name: _SquashAmount
        second: 1
      data:
        first:
          name: _TranslucencyViewDependency
        second: .553571403
      data:
        first:
          name: _ShadowStrength
        second: .464285702
      data:
        first:
          name: _BaseLight
        second: .349999994
      data:
        first:
          name: _AO
        second: 2.4000001
      data:
        first:
          name: _Occlusion
        second: 7.5
    m_Colors:
      data:
        first:
          name: _Color
        second: {r: .897058845, g: .897058845, b: .897058845, a: 1}
      data:
        first:
          name: _Scale
        second: {r: 1, g: 1, b: 1, a: 1}
      data:
        first:
          name: _TranslucencyColor
        second: {r: 1, g: .933265746, b: .654411793, a: 1}
