%YAML 1.1
%TAG !u! tag:unity3d.com,2011:
--- !u!78 &1
TagManager:
  tags:
  - Enemy
  - Triggerer
  - Grass
  - Weapon
  - PickUpObject
  - Checkpoint
  - PuzzleHint
  - MuzzleFlash
  - WeaponPickUp
  - Hand
  - ExplosiveObject
  - Fader
  - EndScene
  - Fire
  - Destructable
  - ToggleSwitch
  - WeaponHalo
  - SpawnedPlatform
  - 
  Builtin Layer 0: Default
  Builtin Layer 1: TransparentFX
  Builtin Layer 2: Ignore Raycast
  Builtin Layer 3: 
  Builtin Layer 4: Water
  Builtin Layer 5: UI
  Builtin Layer 6: 
  Builtin Layer 7: 
  User Layer 8: PuzzleHints
  User Layer 9: NavigationMesh
  User Layer 10: 
  User Layer 11: 
  User Layer 12: 
  User Layer 13: 
  User Layer 14: 
  User Layer 15: 
  User Layer 16: 
  User Layer 17: 
  User Layer 18: 
  User Layer 19: 
  User Layer 20: 
  User Layer 21: 
  User Layer 22: Ragdoll
  User Layer 23: PlayerDamageCollider
  User Layer 24: IgnoreBullets
  User Layer 25: Enemy
  User Layer 26: Pickup
  User Layer 27: Trigger
  User Layer 28: MovableObject
  User Layer 29: Debris
  User Layer 30: LocalPlayer
  User Layer 31: Weapon
  m_SortingLayers:
  - name: Default
    userID: 0
    uniqueID: 0
    locked: 0
