%YAML 1.1
%TAG !u! tag:unity3d.com,2011:
--- !u!91 &9100000
AnimatorController:
  m_ObjectHideFlags: 0
  m_PrefabParentObject: {fileID: 0}
  m_PrefabInternal: {fileID: 0}
  m_Name: EnemyAnimator
  serializedVersion: 2
  m_AnimatorParameters:
  - m_Name: AngularSpeed
    m_Type: 1
    m_DefaultFloat: 0
    m_DefaultInt: 0
    m_DefaultBool: 0
    m_Controller: {fileID: 9100000}
  - m_Name: Speed
    m_Type: 1
    m_DefaultFloat: 0
    m_DefaultInt: 0
    m_DefaultBool: 0
    m_Controller: {fileID: 9100000}
  - m_Name: Shot
    m_Type: 1
    m_DefaultFloat: 0
    m_DefaultInt: 0
    m_DefaultBool: 0
    m_Controller: {fileID: 9100000}
  - m_Name: AimWeight
    m_Type: 1
    m_DefaultFloat: 0
    m_DefaultInt: 0
    m_DefaultBool: 0
    m_Controller: {fileID: 9100000}
  - m_Name: PlayerInSight
    m_Type: 4
    m_DefaultFloat: 0
    m_DefaultInt: 0
    m_DefaultBool: 0
    m_Controller: {fileID: 9100000}
  - m_Name: Dead
    m_Type: 4
    m_DefaultFloat: 0
    m_DefaultInt: 0
    m_DefaultBool: 0
    m_Controller: {fileID: 9100000}
  m_AnimatorLayers:
  - serializedVersion: 3
    m_Name: Base Layer
    m_StateMachine: {fileID: 110704866}
    m_Mask: {fileID: 0}
    m_BlendingMode: 0
    m_SyncedLayerIndex: -1
    m_StateMachineMotionSetIndex: 0
    m_DefaultWeight: 0
    m_IKPass: 0
    m_SyncedLayerAffectsTiming: 0
    m_Controller: {fileID: 9100000}
  - serializedVersion: 3
    m_Name: Shooting
    m_StateMachine: {fileID: 110716862}
    m_Mask: {fileID: 101100000, guid: 76ad1cfd460c49345baecb8fc92faade, type: 2}
    m_BlendingMode: 0
    m_SyncedLayerIndex: -1
    m_StateMachineMotionSetIndex: 0
    m_DefaultWeight: 0
    m_IKPass: 1
    m_SyncedLayerAffectsTiming: 0
    m_Controller: {fileID: 9100000}
  - serializedVersion: 3
    m_Name: Gun
    m_StateMachine: {fileID: 110749786}
    m_Mask: {fileID: 101100000, guid: e9b1ddd4edc0d66468ebbde5b80196e0, type: 2}
    m_BlendingMode: 0
    m_SyncedLayerIndex: -1
    m_StateMachineMotionSetIndex: 0
    m_DefaultWeight: 0
    m_IKPass: 0
    m_SyncedLayerAffectsTiming: 0
    m_Controller: {fileID: 9100000}
--- !u!206 &20675942
BlendTree:
  m_ObjectHideFlags: 3
  m_PrefabParentObject: {fileID: 0}
  m_PrefabInternal: {fileID: 0}
  m_Name: Locomotion
  m_Childs:
  - m_Motion: {fileID: 7400014, guid: 4ee731d726c3dd34eb36806ea0d8fe98, type: 3}
    m_Threshold: 0
    m_Position: {x: -2.46506119, y: .216123179}
    m_TimeScale: 1
    m_CycleOffset: 0
    m_IsAnim: 1
    m_Mirror: 0
  - m_Motion: {fileID: 7400012, guid: 4ee731d726c3dd34eb36806ea0d8fe98, type: 3}
    m_Threshold: .0526315793
    m_Position: {x: -2.12410474, y: .198304608}
    m_TimeScale: 1
    m_CycleOffset: 0
    m_IsAnim: 1
    m_Mirror: 0
  - m_Motion: {fileID: 7400010, guid: 4ee731d726c3dd34eb36806ea0d8fe98, type: 3}
    m_Threshold: .105263159
    m_Position: {x: -1.39122367, y: .140392363}
    m_TimeScale: 1
    m_CycleOffset: 0
    m_IsAnim: 1
    m_Mirror: 0
  - m_Motion: {fileID: 7400008, guid: 4ee731d726c3dd34eb36806ea0d8fe98, type: 3}
    m_Threshold: .157894731
    m_Position: {x: -.827816665, y: .175345778}
    m_TimeScale: 1
    m_CycleOffset: 0
    m_IsAnim: 1
    m_Mirror: 0
  - m_Motion: {fileID: 7400000, guid: dffa50cfe77e0434bbfa71245b3dd529, type: 3}
    m_Threshold: .210526317
    m_Position: {x: 0, y: 0}
    m_TimeScale: 1
    m_CycleOffset: 0
    m_IsAnim: 1
    m_Mirror: 0
  - m_Motion: {fileID: 7400002, guid: 4ee731d726c3dd34eb36806ea0d8fe98, type: 3}
    m_Threshold: .263157904
    m_Position: {x: .827816665, y: .175345778}
    m_TimeScale: 1
    m_CycleOffset: 0
    m_IsAnim: 1
    m_Mirror: 0
  - m_Motion: {fileID: 7400000, guid: 4ee731d726c3dd34eb36806ea0d8fe98, type: 3}
    m_Threshold: .315789461
    m_Position: {x: 1.39122367, y: .140392363}
    m_TimeScale: 1
    m_CycleOffset: 0
    m_IsAnim: 1
    m_Mirror: 0
  - m_Motion: {fileID: 7400004, guid: 4ee731d726c3dd34eb36806ea0d8fe98, type: 3}
    m_Threshold: .368421048
    m_Position: {x: 2.12410474, y: .198304608}
    m_TimeScale: 1
    m_CycleOffset: 0
    m_IsAnim: 1
    m_Mirror: 0
  - m_Motion: {fileID: 7400006, guid: 4ee731d726c3dd34eb36806ea0d8fe98, type: 3}
    m_Threshold: .421052635
    m_Position: {x: 2.46506119, y: .216123179}
    m_TimeScale: 1
    m_CycleOffset: 0
    m_IsAnim: 1
    m_Mirror: 0
  - m_Motion: {fileID: 7400000, guid: bb141fc9a700c9c4ca7e6dadb8acf24b, type: 3}
    m_Threshold: .473684222
    m_Position: {x: -1.76865542, y: 1.70154989}
    m_TimeScale: 1
    m_CycleOffset: 0
    m_IsAnim: 1
    m_Mirror: 0
  - m_Motion: {fileID: 7400002, guid: 6da89662649b53c49b06616f51157b48, type: 3}
    m_Threshold: .526315808
    m_Position: {x: -1.08886266, y: 1.54714656}
    m_TimeScale: 1
    m_CycleOffset: 0
    m_IsAnim: 1
    m_Mirror: 0
  - m_Motion: {fileID: 7400002, guid: 6bb9737c88e5309458a1e0e764137dfd, type: 3}
    m_Threshold: .578947365
    m_Position: {x: -.49162817, y: 1.42626798}
    m_TimeScale: 1
    m_CycleOffset: 0
    m_IsAnim: 1
    m_Mirror: 0
  - m_Motion: {fileID: 7400000, guid: b1a5e04ae51004842aba06704a6c2903, type: 3}
    m_Threshold: .631578922
    m_Position: {x: -.00915314071, y: 1.55574775}
    m_TimeScale: 1
    m_CycleOffset: 0
    m_IsAnim: 1
    m_Mirror: 0
  - m_Motion: {fileID: 7400002, guid: bb141fc9a700c9c4ca7e6dadb8acf24b, type: 3}
    m_Threshold: .684210539
    m_Position: {x: 1.76865542, y: 1.70154989}
    m_TimeScale: 1
    m_CycleOffset: 0
    m_IsAnim: 1
    m_Mirror: 0
  - m_Motion: {fileID: 7400000, guid: 6da89662649b53c49b06616f51157b48, type: 3}
    m_Threshold: .736842096
    m_Position: {x: 1.08886266, y: 1.54714656}
    m_TimeScale: 1
    m_CycleOffset: 0
    m_IsAnim: 1
    m_Mirror: 0
  - m_Motion: {fileID: 7400000, guid: 6bb9737c88e5309458a1e0e764137dfd, type: 3}
    m_Threshold: .789473712
    m_Position: {x: .49134627, y: 1.42640889}
    m_TimeScale: 1
    m_CycleOffset: 0
    m_IsAnim: 1
    m_Mirror: 0
  - m_Motion: {fileID: 7400002, guid: f2bed5dc5afacff44a00de8daae9703b, type: 3}
    m_Threshold: .842105269
    m_Position: {x: -2.32107544, y: 5.25070143}
    m_TimeScale: 1
    m_CycleOffset: 0
    m_IsAnim: 1
    m_Mirror: 0
  - m_Motion: {fileID: 7400002, guid: 1062212255550964e974f3ffb3cbaae3, type: 3}
    m_Threshold: .894736826
    m_Position: {x: -1.68378925, y: 5.66618919}
    m_TimeScale: 1
    m_CycleOffset: 0
    m_IsAnim: 1
    m_Mirror: 0
  - m_Motion: {fileID: 7400000, guid: 1cb8ed3cbba15f0479fbae54e0a963df, type: 3}
    m_Threshold: .947368443
    m_Position: {x: 0, y: 5.6677556}
    m_TimeScale: 1
    m_CycleOffset: 0
    m_IsAnim: 1
    m_Mirror: 0
  - m_Motion: {fileID: 7400000, guid: 1062212255550964e974f3ffb3cbaae3, type: 3}
    m_Threshold: 1
    m_Position: {x: 1.68378925, y: 5.66618919}
    m_TimeScale: 1
    m_CycleOffset: 0
    m_IsAnim: 1
    m_Mirror: 0
  - m_Motion: {fileID: 7400000, guid: f2bed5dc5afacff44a00de8daae9703b, type: 3}
    m_Threshold: 1.05263162
    m_Position: {x: 2.32107544, y: 5.25070143}
    m_TimeScale: 1
    m_CycleOffset: 0
    m_IsAnim: 1
    m_Mirror: 0
  m_BlendParameter: AngularSpeed
  m_BlendParameterY: Speed
  m_MinThreshold: 0
  m_MaxThreshold: 1.05263162
  m_UseAutomaticThresholds: 0
  m_BlendType: 3
--- !u!1101 &110104032
Transition:
  serializedVersion: 2
  m_ObjectHideFlags: 3
  m_PrefabParentObject: {fileID: 0}
  m_PrefabInternal: {fileID: 0}
  m_Name: 
  m_SrcState: {fileID: 110243212}
  m_DstState: {fileID: 110208506}
  m_TransitionDuration: .100000001
  m_TransitionOffset: 0
  m_Conditions:
  - m_ConditionMode: 1
    m_ConditionEvent: PlayerInSight
    m_EventTreshold: 0
    m_ExitTime: .899999976
  m_Atomic: 1
  m_Solo: 0
  m_Mute: 0
  m_CanTransitionToSelf: 0
--- !u!1101 &110133858
Transition:
  serializedVersion: 2
  m_ObjectHideFlags: 3
  m_PrefabParentObject: {fileID: 0}
  m_PrefabInternal: {fileID: 0}
  m_Name: 
  m_SrcState: {fileID: 110208506}
  m_DstState: {fileID: 110227836}
  m_TransitionDuration: .15625
  m_TransitionOffset: 0
  m_Conditions:
  - m_ConditionMode: 5
    m_ConditionEvent: Dead
    m_EventTreshold: 0
    m_ExitTime: .84375
  m_Atomic: 1
  m_Solo: 0
  m_Mute: 0
  m_CanTransitionToSelf: 0
--- !u!1101 &110137918
Transition:
  serializedVersion: 2
  m_ObjectHideFlags: 3
  m_PrefabParentObject: {fileID: 0}
  m_PrefabInternal: {fileID: 0}
  m_Name: 
  m_SrcState: {fileID: 110222140}
  m_DstState: {fileID: 110243212}
  m_TransitionDuration: .117187493
  m_TransitionOffset: 0
  m_Conditions:
  - m_ConditionMode: 5
    m_ConditionEvent: Dead
    m_EventTreshold: 0
    m_ExitTime: .8828125
  m_Atomic: 1
  m_Solo: 0
  m_Mute: 0
  m_CanTransitionToSelf: 0
--- !u!1101 &110153338
Transition:
  serializedVersion: 2
  m_ObjectHideFlags: 3
  m_PrefabParentObject: {fileID: 0}
  m_PrefabInternal: {fileID: 0}
  m_Name: 
  m_SrcState: {fileID: 110227836}
  m_DstState: {fileID: 110222140}
  m_TransitionDuration: .182926789
  m_TransitionOffset: 0
  m_Conditions:
  - m_ConditionMode: 2
    m_ConditionEvent: PlayerInSight
    m_EventTreshold: 0
    m_ExitTime: .817073226
  m_Atomic: 1
  m_Solo: 0
  m_Mute: 0
  m_CanTransitionToSelf: 0
--- !u!1101 &110165398
Transition:
  serializedVersion: 2
  m_ObjectHideFlags: 3
  m_PrefabParentObject: {fileID: 0}
  m_PrefabInternal: {fileID: 0}
  m_Name: 
  m_SrcState: {fileID: 0}
  m_DstState: {fileID: 110257456}
  m_TransitionDuration: .100000001
  m_TransitionOffset: 0
  m_Conditions:
  - m_ConditionMode: 1
    m_ConditionEvent: Dead
    m_EventTreshold: 0
    m_ExitTime: .899999976
  m_Atomic: 1
  m_Solo: 0
  m_Mute: 0
  m_CanTransitionToSelf: 0
--- !u!1102 &110208506
State:
  m_ObjectHideFlags: 3
  m_PrefabParentObject: {fileID: 0}
  m_PrefabInternal: {fileID: 0}
  m_Name: WeaponRaise
  m_Speed: 3
  m_CycleOffset: 0
  m_Motions:
  - {fileID: 7400000, guid: 5a91f67895dacab46bf50935334f3977, type: 3}
  m_ParentStateMachine: {fileID: 110716862}
  m_Position: {x: 252, y: 60, z: 0}
  m_IKOnFeet: 0
  m_Mirror: 0
  m_Tag: 
--- !u!1102 &110220952
State:
  m_ObjectHideFlags: 3
  m_PrefabParentObject: {fileID: 0}
  m_PrefabInternal: {fileID: 0}
  m_Name: Gripped
  m_Speed: 1
  m_CycleOffset: 0
  m_Motions:
  - {fileID: 7400000, guid: 147bfd984dbf69a4ead625c2f75b4c87, type: 2}
  m_ParentStateMachine: {fileID: 110749786}
  m_Position: {x: 192, y: -96, z: 0}
  m_IKOnFeet: 0
  m_Mirror: 0
  m_Tag: 
--- !u!1102 &110222140
State:
  m_ObjectHideFlags: 3
  m_PrefabParentObject: {fileID: 0}
  m_PrefabInternal: {fileID: 0}
  m_Name: WeaponLower
  m_Speed: 1
  m_CycleOffset: 0
  m_Motions:
  - {fileID: 7400000, guid: 2ec4bde4760ff6649a9ebe052624c435, type: 3}
  m_ParentStateMachine: {fileID: 110716862}
  m_Position: {x: 252, y: -252, z: 0}
  m_IKOnFeet: 0
  m_Mirror: 0
  m_Tag: 
--- !u!1102 &110227836
State:
  m_ObjectHideFlags: 3
  m_PrefabParentObject: {fileID: 0}
  m_PrefabInternal: {fileID: 0}
  m_Name: WeaponShoot
  m_Speed: 1
  m_CycleOffset: 0
  m_Motions:
  - {fileID: 7400000, guid: b157cdcdb0f1cbe4dad60f2bfe986755, type: 3}
  m_ParentStateMachine: {fileID: 110716862}
  m_Position: {x: 456, y: -96, z: 0}
  m_IKOnFeet: 0
  m_Mirror: 0
  m_Tag: 
--- !u!1102 &110243212
State:
  m_ObjectHideFlags: 3
  m_PrefabParentObject: {fileID: 0}
  m_PrefabInternal: {fileID: 0}
  m_Name: Empty State
  m_Speed: 1
  m_CycleOffset: 0
  m_Motions:
  - {fileID: 0}
  m_ParentStateMachine: {fileID: 110716862}
  m_Position: {x: 24, y: -96, z: 0}
  m_IKOnFeet: 0
  m_Mirror: 0
  m_Tag: 
--- !u!1102 &110257456
State:
  m_ObjectHideFlags: 3
  m_PrefabParentObject: {fileID: 0}
  m_PrefabInternal: {fileID: 0}
  m_Name: Dying
  m_Speed: 1
  m_CycleOffset: 0
  m_Motions:
  - {fileID: 7400000, guid: a65fd883224d8b449bd65442edfef5cd, type: 3}
  m_ParentStateMachine: {fileID: 110704866}
  m_Position: {x: 228, y: -324, z: 0}
  m_IKOnFeet: 0
  m_Mirror: 0
  m_Tag: 
--- !u!1102 &110275942
State:
  m_ObjectHideFlags: 3
  m_PrefabParentObject: {fileID: 0}
  m_PrefabInternal: {fileID: 0}
  m_Name: Locomotion
  m_Speed: 1
  m_CycleOffset: 0
  m_Motions:
  - {fileID: 20675942}
  m_ParentStateMachine: {fileID: 110704866}
  m_Position: {x: 528, y: -324, z: 0}
  m_IKOnFeet: 0
  m_Mirror: 0
  m_Tag: 
--- !u!1107 &110704866
StateMachine:
  serializedVersion: 2
  m_ObjectHideFlags: 3
  m_PrefabParentObject: {fileID: 0}
  m_PrefabInternal: {fileID: 0}
  m_Name: Base Layer
  m_DefaultState: {fileID: 110275942}
  m_States:
  - {fileID: 110275942}
  - {fileID: 110257456}
  m_ChildStateMachine: []
  m_ChildStateMachinePosition: []
  m_OrderedTransitions:
    data:
      first: {fileID: 0}
      second:
      - {fileID: 110165398}
    data:
      first: {fileID: 110257456}
      second: []
    data:
      first: {fileID: 110275942}
      second: []
  m_MotionSetCount: 1
  m_AnyStatePosition: {x: 252, y: -204, z: 0}
  m_ParentStateMachinePosition: {x: 800, y: 20, z: 0}
--- !u!1107 &110716862
StateMachine:
  serializedVersion: 2
  m_ObjectHideFlags: 3
  m_PrefabParentObject: {fileID: 0}
  m_PrefabInternal: {fileID: 0}
  m_Name: Shooting
  m_DefaultState: {fileID: 110243212}
  m_States:
  - {fileID: 110243212}
  - {fileID: 110208506}
  - {fileID: 110227836}
  - {fileID: 110222140}
  m_ChildStateMachine: []
  m_ChildStateMachinePosition: []
  m_OrderedTransitions:
    data:
      first: {fileID: 110208506}
      second:
      - {fileID: 110133858}
    data:
      first: {fileID: 110222140}
      second:
      - {fileID: 110137918}
    data:
      first: {fileID: 110227836}
      second:
      - {fileID: 110153338}
    data:
      first: {fileID: 110243212}
      second:
      - {fileID: 110104032}
  m_MotionSetCount: 1
  m_AnyStatePosition: {x: -60, y: 24, z: 0}
  m_ParentStateMachinePosition: {x: 800, y: 20, z: 0}
--- !u!1107 &110749786
StateMachine:
  serializedVersion: 2
  m_ObjectHideFlags: 3
  m_PrefabParentObject: {fileID: 0}
  m_PrefabInternal: {fileID: 0}
  m_Name: Gun
  m_DefaultState: {fileID: 110220952}
  m_States:
  - {fileID: 110220952}
  m_ChildStateMachine: []
  m_ChildStateMachinePosition: []
  m_OrderedTransitions:
    data:
      first: {fileID: 110220952}
      second: []
  m_MotionSetCount: 1
  m_AnyStatePosition: {x: 50, y: 20, z: 0}
  m_ParentStateMachinePosition: {x: 800, y: 20, z: 0}
